…
# use dcent to extract temperature values from zamtmeanalb add it as a new 
# variable using mutate
dcent <- dcent %>% 
  mutate(temp = terra::extract(zamtmeanalb, dcent)$mean) 
  
# convert to tibble
dcent <- bind_cols(
  dcent %>% data.frame %>% dplyr::select(-geometry) %>% as_tibble, 
  st_coordinates(dcent) %>% as_tibble
) %>% rename(x = X, y = Y)
dcent
#> # A tibble: 72 × 4
#>    distName       temp        x         y
#>    <chr>         <dbl>    <dbl>     <dbl>
#>  1 Chadiza        22.0  785504. -1660651.
#>  2 Chama          23.5  804577. -1323913.
#>  3 Chavuma        19.6 -265706. -1561046.
#>  4 Chibombo       20.5  314855. -1748564.
#>  5 Chiengi        24.4  427626. -1035130.
#>  6 Chililabombwe  19.4  289720. -1461451.
#>  7 Chilubi        21.1  540126. -1314573.
#>  8 Chingola       19.3  280202. -1478732.
#>  9 Chinsali       20.0  712689. -1273197.
#> 10 Chipata        22.0  775301. -1600748.
#> # ℹ 62 more rows
…
